%YAML 1.1
%TAG !u! tag:unity3d.com,2011:
--- !u!74 &7400000
AnimationClip:
  m_ObjectHideFlags: 0
  m_CorrespondingSourceObject: {fileID: 0}
  m_PrefabInstance: {fileID: 0}
  m_PrefabAsset: {fileID: 0}
  m_Name: Run
  serializedVersion: 6
  m_Legacy: 0
  m_Compressed: 0
  m_UseHighQualityCurve: 1
  m_RotationCurves: []
  m_CompressedRotationCurves: []
  m_EulerCurves: []
  m_PositionCurves: []
  m_ScaleCurves: []
  m_FloatCurves: []
  m_PPtrCurves:
  - curve:
    - time: 0
      value: {fileID: 21300000, guid: 650c6e1f750ce9c4892e516dfaa8aa7e, type: 3}
    - time: 0.14285715
      value: {fileID: 21300000, guid: 9e4dbc1698f1665428c3478aac558c85, type: 3}
    - time: 0.2857143
      value: {fileID: 21300000, guid: 73dfe7ed84ef92b458b0d29641bd18e5, type: 3}
    - time: 0.42857143
      value: {fileID: 21300000, guid: d4ce034743d0a9b43936a489e111cc37, type: 3}
    - time: 0.5714286
      value: {fileID: 21300000, guid: 7cba38b47e67c2f4688d1f367e5c2846, type: 3}
    - time: 0.71428573
      value: {fileID: 21300000, guid: 92c94024487bce14ca440bc7889a0624, type: 3}
    attribute: m_Sprite
    path: 
    classID: 212
    script: {fileID: 0}
  m_SampleRate: 7
  m_WrapMode: 0
  m_Bounds:
    m_Center: {x: 0, y: 0, z: 0}
    m_Extent: {x: 0, y: 0, z: 0}
  m_ClipBindingConstant:
    genericBindings:
    - serializedVersion: 2
      path: 0
      attribute: 0
      script: {fileID: 0}
      typeID: 212
      customType: 23
      isPPtrCurve: 1
    pptrCurveMapping:
    - {fileID: 21300000, guid: 650c6e1f750ce9c4892e516dfaa8aa7e, type: 3}
    - {fileID: 21300000, guid: 9e4dbc1698f1665428c3478aac558c85, type: 3}
    - {fileID: 21300000, guid: 73dfe7ed84ef92b458b0d29641bd18e5, type: 3}
    - {fileID: 21300000, guid: d4ce034743d0a9b43936a489e111cc37, type: 3}
    - {fileID: 21300000, guid: 7cba38b47e67c2f4688d1f367e5c2846, type: 3}
    - {fileID: 21300000, guid: 92c94024487bce14ca440bc7889a0624, type: 3}
  m_AnimationClipSettings:
    serializedVersion: 2
    m_AdditiveReferencePoseClip: {fileID: 0}
    m_AdditiveReferencePoseTime: 0
    m_StartTime: 0
    m_StopTime: 0.85714287
    m_OrientationOffsetY: 0
    m_Level: 0
    m_CycleOffset: 0
    m_HasAdditiveReferencePose: 0
    m_LoopTime: 1
    m_LoopBlend: 0
    m_LoopBlendOrientation: 0
    m_LoopBlendPositionY: 0
    m_LoopBlendPositionXZ: 0
    m_KeepOriginalOrientation: 0
    m_KeepOriginalPositionY: 1
    m_KeepOriginalPositionXZ: 0
    m_HeightFromFeet: 0
    m_Mirror: 0
  m_EditorCurves: []
  m_EulerEditorCurves: []
  m_HasGenericRootTransform: 0
  m_HasMotionFloatCurves: 0
  m_Events: []
