%YAML 1.1
%TAG !u! tag:unity3d.com,2011:
--- !u!74 &7400000
AnimationClip:
  m_ObjectHideFlags: 0
  m_CorrespondingSourceObject: {fileID: 0}
  m_PrefabInstance: {fileID: 0}
  m_PrefabAsset: {fileID: 0}
  m_Name: Attack2
  serializedVersion: 6
  m_Legacy: 0
  m_Compressed: 0
  m_UseHighQualityCurve: 1
  m_RotationCurves: []
  m_CompressedRotationCurves: []
  m_EulerCurves: []
  m_PositionCurves: []
  m_ScaleCurves: []
  m_FloatCurves: []
  m_PPtrCurves:
  - curve:
    - time: 0
      value: {fileID: 21300000, guid: 20cbfef626bb5f640981a6aa520fa19e, type: 3}
    - time: 0.16666667
      value: {fileID: 21300000, guid: e6402303e8b8368438bbdc8d1fb23094, type: 3}
    - time: 0.33333334
      value: {fileID: 21300000, guid: c4601ecc7f9f6874ab2750860e7d8b4b, type: 3}
    - time: 0.5
      value: {fileID: 21300000, guid: 60d5e11860bb20a4ebc1c058aaebc3e6, type: 3}
    - time: 0.6666667
      value: {fileID: 21300000, guid: 60b8048c0ba2437408bf7eeecebc4eca, type: 3}
    - time: 0.8333333
      value: {fileID: 21300000, guid: 2a2e19a8363b1844ea4dde5990883c6d, type: 3}
    - time: 1
      value: {fileID: 21300000, guid: 19247acb677852646a1839d84e8c90f7, type: 3}
    - time: 1.1666666
      value: {fileID: 21300000, guid: 343fa617a32c867478e9a5ddab3ce0f0, type: 3}
    - time: 1.3333334
      value: {fileID: 21300000, guid: 0f2911daac2148344a0d2b092ffc1a01, type: 3}
    - time: 1.5
      value: {fileID: 21300000, guid: 46bd3f906fad381428446aa84df8b389, type: 3}
    - time: 1.6666666
      value: {fileID: 21300000, guid: 808fdae5da3615f45a5ccdb303be3de8, type: 3}
    - time: 1.8333334
      value: {fileID: 21300000, guid: c6252ee8be8a1a04a969acc3493f46fb, type: 3}
    - time: 2
      value: {fileID: 21300000, guid: 91feb8f192881cd4c9f121720882c5cc, type: 3}
    - time: 2.1666667
      value: {fileID: 21300000, guid: 42c32350f33e2e34fa5f8405b36502a3, type: 3}
    - time: 2.3333333
      value: {fileID: 21300000, guid: 93da889195fd48b479975a0cd83c08c0, type: 3}
    - time: 2.5
      value: {fileID: 21300000, guid: bc9ea92cc7aab2a4e9613b99cad7c289, type: 3}
    - time: 2.6666667
      value: {fileID: 21300000, guid: eaee6ece28c95d14da0f0e1634208486, type: 3}
    - time: 2.8333333
      value: {fileID: 21300000, guid: aa29a780378addf488c2fe3ea793196b, type: 3}
    - time: 3
      value: {fileID: 21300000, guid: 29d9af59c8e20dd489ddd2243564d039, type: 3}
    - time: 3.1666667
      value: {fileID: 21300000, guid: 1afe78b79abbe104cb7747e4aff99499, type: 3}
    attribute: m_Sprite
    path: 
    classID: 212
    script: {fileID: 0}
  m_SampleRate: 6
  m_WrapMode: 0
  m_Bounds:
    m_Center: {x: 0, y: 0, z: 0}
    m_Extent: {x: 0, y: 0, z: 0}
  m_ClipBindingConstant:
    genericBindings:
    - serializedVersion: 2
      path: 0
      attribute: 0
      script: {fileID: 0}
      typeID: 212
      customType: 23
      isPPtrCurve: 1
    pptrCurveMapping:
    - {fileID: 21300000, guid: 20cbfef626bb5f640981a6aa520fa19e, type: 3}
    - {fileID: 21300000, guid: e6402303e8b8368438bbdc8d1fb23094, type: 3}
    - {fileID: 21300000, guid: c4601ecc7f9f6874ab2750860e7d8b4b, type: 3}
    - {fileID: 21300000, guid: 60d5e11860bb20a4ebc1c058aaebc3e6, type: 3}
    - {fileID: 21300000, guid: 60b8048c0ba2437408bf7eeecebc4eca, type: 3}
    - {fileID: 21300000, guid: 2a2e19a8363b1844ea4dde5990883c6d, type: 3}
    - {fileID: 21300000, guid: 19247acb677852646a1839d84e8c90f7, type: 3}
    - {fileID: 21300000, guid: 343fa617a32c867478e9a5ddab3ce0f0, type: 3}
    - {fileID: 21300000, guid: 0f2911daac2148344a0d2b092ffc1a01, type: 3}
    - {fileID: 21300000, guid: 46bd3f906fad381428446aa84df8b389, type: 3}
    - {fileID: 21300000, guid: 808fdae5da3615f45a5ccdb303be3de8, type: 3}
    - {fileID: 21300000, guid: c6252ee8be8a1a04a969acc3493f46fb, type: 3}
    - {fileID: 21300000, guid: 91feb8f192881cd4c9f121720882c5cc, type: 3}
    - {fileID: 21300000, guid: 42c32350f33e2e34fa5f8405b36502a3, type: 3}
    - {fileID: 21300000, guid: 93da889195fd48b479975a0cd83c08c0, type: 3}
    - {fileID: 21300000, guid: bc9ea92cc7aab2a4e9613b99cad7c289, type: 3}
    - {fileID: 21300000, guid: eaee6ece28c95d14da0f0e1634208486, type: 3}
    - {fileID: 21300000, guid: aa29a780378addf488c2fe3ea793196b, type: 3}
    - {fileID: 21300000, guid: 29d9af59c8e20dd489ddd2243564d039, type: 3}
    - {fileID: 21300000, guid: 1afe78b79abbe104cb7747e4aff99499, type: 3}
  m_AnimationClipSettings:
    serializedVersion: 2
    m_AdditiveReferencePoseClip: {fileID: 0}
    m_AdditiveReferencePoseTime: 0
    m_StartTime: 0
    m_StopTime: 3.3333335
    m_OrientationOffsetY: 0
    m_Level: 0
    m_CycleOffset: 0
    m_HasAdditiveReferencePose: 0
    m_LoopTime: 0
    m_LoopBlend: 0
    m_LoopBlendOrientation: 0
    m_LoopBlendPositionY: 0
    m_LoopBlendPositionXZ: 0
    m_KeepOriginalOrientation: 0
    m_KeepOriginalPositionY: 1
    m_KeepOriginalPositionXZ: 0
    m_HeightFromFeet: 0
    m_Mirror: 0
  m_EditorCurves: []
  m_EulerEditorCurves: []
  m_HasGenericRootTransform: 0
  m_HasMotionFloatCurves: 0
  m_Events:
  - time: 1.8333334
    functionName: _InitSpell
    data: 
    objectReferenceParameter: {fileID: 0}
    floatParameter: 0
    intParameter: 0
    messageOptions: 0
