%YAML 1.1
%TAG !u! tag:unity3d.com,2011:
--- !u!74 &7400000
AnimationClip:
  m_ObjectHideFlags: 0
  m_CorrespondingSourceObject: {fileID: 0}
  m_PrefabInstance: {fileID: 0}
  m_PrefabAsset: {fileID: 0}
  m_Name: Run
  serializedVersion: 6
  m_Legacy: 0
  m_Compressed: 0
  m_UseHighQualityCurve: 1
  m_RotationCurves: []
  m_CompressedRotationCurves: []
  m_EulerCurves: []
  m_PositionCurves: []
  m_ScaleCurves: []
  m_FloatCurves: []
  m_PPtrCurves:
  - curve:
    - time: 0
      value: {fileID: 21300000, guid: e81af57122be773428cfc1a24a964d77, type: 3}
    - time: 0.16666667
      value: {fileID: 21300000, guid: e681aab5e847813448bcf560f05ec6f2, type: 3}
    - time: 0.33333334
      value: {fileID: 21300000, guid: c0df30dea4ceee64aa16021cb861ae1a, type: 3}
    - time: 0.5
      value: {fileID: 21300000, guid: 36a816a3a18fe9e489eecb5f75c80990, type: 3}
    - time: 0.6666667
      value: {fileID: 21300000, guid: a894f72857787c4439798f1f09e6be4d, type: 3}
    - time: 0.8333333
      value: {fileID: 21300000, guid: e3d4c0b6120fe3b48af3ef72ac55f7a2, type: 3}
    - time: 1
      value: {fileID: 21300000, guid: 7139e599b7dcf9645a9aafababe286e2, type: 3}
    - time: 1.1666666
      value: {fileID: 21300000, guid: b6572bd03a837f94abc1157526ae3e45, type: 3}
    attribute: m_Sprite
    path: 
    classID: 212
    script: {fileID: 0}
  m_SampleRate: 6
  m_WrapMode: 0
  m_Bounds:
    m_Center: {x: 0, y: 0, z: 0}
    m_Extent: {x: 0, y: 0, z: 0}
  m_ClipBindingConstant:
    genericBindings:
    - serializedVersion: 2
      path: 0
      attribute: 0
      script: {fileID: 0}
      typeID: 212
      customType: 23
      isPPtrCurve: 1
    pptrCurveMapping:
    - {fileID: 21300000, guid: e81af57122be773428cfc1a24a964d77, type: 3}
    - {fileID: 21300000, guid: e681aab5e847813448bcf560f05ec6f2, type: 3}
    - {fileID: 21300000, guid: c0df30dea4ceee64aa16021cb861ae1a, type: 3}
    - {fileID: 21300000, guid: 36a816a3a18fe9e489eecb5f75c80990, type: 3}
    - {fileID: 21300000, guid: a894f72857787c4439798f1f09e6be4d, type: 3}
    - {fileID: 21300000, guid: e3d4c0b6120fe3b48af3ef72ac55f7a2, type: 3}
    - {fileID: 21300000, guid: 7139e599b7dcf9645a9aafababe286e2, type: 3}
    - {fileID: 21300000, guid: b6572bd03a837f94abc1157526ae3e45, type: 3}
  m_AnimationClipSettings:
    serializedVersion: 2
    m_AdditiveReferencePoseClip: {fileID: 0}
    m_AdditiveReferencePoseTime: 0
    m_StartTime: 0
    m_StopTime: 1.3333333
    m_OrientationOffsetY: 0
    m_Level: 0
    m_CycleOffset: 0
    m_HasAdditiveReferencePose: 0
    m_LoopTime: 1
    m_LoopBlend: 0
    m_LoopBlendOrientation: 0
    m_LoopBlendPositionY: 0
    m_LoopBlendPositionXZ: 0
    m_KeepOriginalOrientation: 0
    m_KeepOriginalPositionY: 1
    m_KeepOriginalPositionXZ: 0
    m_HeightFromFeet: 0
    m_Mirror: 0
  m_EditorCurves: []
  m_EulerEditorCurves: []
  m_HasGenericRootTransform: 0
  m_HasMotionFloatCurves: 0
  m_Events: []
